#
## Alias OBJ Material File
# Exported from SketchUp, (c) 2000-2012 Trimble Navigation Limited

newmtl Google_Earth_Snapshot
Ka 0.000000 0.000000 0.000000
Kd 0.454902 0.509804 0.447059
Ks 0.330000 0.330000 0.330000
map_Kd bluewaterarena/Google_Earth_Snapshot.jpg

newmtl Google_Earth_Snapshot_1
Ka 0.000000 0.000000 0.000000
Kd 0.466667 0.521569 0.462745
Ks 0.330000 0.330000 0.330000
map_Kd bluewaterarena/Google_Earth_Snapshot_1.jpg

newmtl Metal_Rough
Ka 0.000000 0.000000 0.000000
Kd 0.600000 0.615686 0.627451
Ks 0.330000 0.330000 0.330000
map_Kd bluewaterarena/Metal_Rough.jpg

newmtl Color_I01
Ka 0.000000 0.000000 0.000000
Kd 0.000000 0.000000 1.000000
Ks 0.330000 0.330000 0.330000

newmtl _Burnt_Umber_1
Ka 0.000000 0.000000 0.000000
Kd 0.027451 0.011765 0.007843
Ks 0.330000 0.330000 0.330000

newmtl Scoreboard
Ka 0.000000 0.000000 0.000000
Kd 0.074510 0.074510 0.074510
Ks 0.330000 0.330000 0.330000
map_Kd bluewaterarena/Scoreboard.png

newmtl Blinds_Roman_Hobbled_Blue2_copy
Ka 0.000000 0.000000 0.000000
Kd 0.313725 0.321569 0.341176
Ks 0.330000 0.330000 0.330000
map_Kd bluewaterarena/Blinds_Roman_Hobbled_Blue2_copy.jpg

newmtl _33_copy
Ka 0.000000 0.000000 0.000000
Kd 0.541176 0.541176 0.537255
Ks 0.330000 0.330000 0.330000
map_Kd bluewaterarena/_33_copy.jpg

newmtl _46
Ka 0.000000 0.000000 0.000000
Kd 0.749020 0.749020 0.749020
Ks 0.330000 0.330000 0.330000
d 0.500000
map_Kd bluewaterarena/_46.jpg

newmtl _48
Ka 0.000000 0.000000 0.000000
Kd 0.274510 0.286275 0.294118
Ks 0.330000 0.330000 0.330000
map_Kd bluewaterarena/_48.jpg

newmtl Dark_Blue_Seats
Ka 0.000000 0.000000 0.000000
Kd 0.000000 0.027451 0.749020
Ks 0.330000 0.330000 0.330000
map_Kd bluewaterarena/Dark_Blue_Seats.jpg

newmtl _1
Ka 0.000000 0.000000 0.000000
Kd 0.498039 0.498039 0.498039
Ks 0.330000 0.330000 0.330000
map_Kd bluewaterarena/_1.jpg

newmtl Blinds_Roman_Hobbled_Blue2_copy1
Ka 0.000000 0.000000 0.000000
Kd 0.619608 0.619608 0.619608
Ks 0.330000 0.330000 0.330000
map_Kd bluewaterarena/Blinds_Roman_Hobbled_Blue2_copy1.jpg

newmtl _2
Ka 0.000000 0.000000 0.000000
Kd 0.541176 0.541176 0.537255
Ks 0.330000 0.330000 0.330000
map_Kd bluewaterarena/_2.jpg

newmtl _50
Ka 0.000000 0.000000 0.000000
Kd 0.313725 0.345098 0.368627
Ks 0.330000 0.330000 0.330000
map_Kd bluewaterarena/_50.jpg

newmtl Material_1
Ka 0.000000 0.000000 0.000000
Kd 0.533333 0.509804 0.431373
Ks 0.330000 0.330000 0.330000
map_Kd bluewaterarena/Material_1.jpg

newmtl FrontColor
Ka 0.000000 0.000000 0.000000
Kd 1.000000 1.000000 1.000000
Ks 0.330000 0.330000 0.330000

newmtl _Metal_Rough_1
Ka 0.000000 0.000000 0.000000
Kd 0.247059 0.247059 0.247059
Ks 0.330000 0.330000 0.330000
map_Kd bluewaterarena/_Metal_Rough_1.jpg

newmtl entry_doors
Ka 0.000000 0.000000 0.000000
Kd 0.384314 0.400000 0.360784
Ks 0.330000 0.330000 0.330000
map_Kd bluewaterarena/entry_doors.jpg

newmtl Boston_convention_center_1
Ka 0.000000 0.000000 0.000000
Kd 0.250980 0.286275 0.298039
Ks 0.330000 0.330000 0.330000
map_Kd bluewaterarena/Boston_convention_center_1.jpg

newmtl igl_hdc_tex_rail_b_v01
Ka 0.000000 0.000000 0.000000
Kd 0.588235 0.596078 0.596078
Ks 0.330000 0.330000 0.330000
map_Kd bluewaterarena/igl_hdc_tex_rail_b_v01.png

newmtl Exec_Boxes1
Ka 0.000000 0.000000 0.000000
Kd 0.247059 0.298039 0.301961
Ks 0.330000 0.330000 0.330000
map_Kd bluewaterarena/Exec_Boxes1.png

newmtl Photo_Texture
Ka 0.000000 0.000000 0.000000
Kd 0.494118 0.494118 0.501961
Ks 0.330000 0.330000 0.330000
map_Kd bluewaterarena/Photo_Texture.jpg

newmtl igl_hdc_tex_rail_b_v01_1_
Ka 0.000000 0.000000 0.000000
Kd 0.588235 0.596078 0.596078
Ks 0.330000 0.330000 0.330000
map_Kd bluewaterarena/igl_hdc_tex_rail_b_v01_1_.png

newmtl Photo_Texture1_
Ka 0.000000 0.000000 0.000000
Kd 0.494118 0.494118 0.501961
Ks 0.330000 0.330000 0.330000
map_Kd bluewaterarena/Photo_Texture1_.jpg

newmtl Photo_Texture2_
Ka 0.000000 0.000000 0.000000
Kd 0.494118 0.494118 0.501961
Ks 0.330000 0.330000 0.330000
map_Kd bluewaterarena/Photo_Texture2_.jpg

newmtl Photo_Texture3_
Ka 0.000000 0.000000 0.000000
Kd 0.494118 0.494118 0.501961
Ks 0.330000 0.330000 0.330000
map_Kd bluewaterarena/Photo_Texture3_.jpg

newmtl Photo_Texture4_
Ka 0.000000 0.000000 0.000000
Kd 0.494118 0.494118 0.501961
Ks 0.330000 0.330000 0.330000
map_Kd bluewaterarena/Photo_Texture4_.jpg

newmtl Photo_Texture5_
Ka 0.000000 0.000000 0.000000
Kd 0.494118 0.494118 0.501961
Ks 0.330000 0.330000 0.330000
map_Kd bluewaterarena/Photo_Texture5_.jpg

newmtl Photo_Texture6_
Ka 0.000000 0.000000 0.000000
Kd 0.494118 0.494118 0.501961
Ks 0.330000 0.330000 0.330000
map_Kd bluewaterarena/Photo_Texture6_.jpg

newmtl Photo_Texture7_
Ka 0.000000 0.000000 0.000000
Kd 0.494118 0.494118 0.501961
Ks 0.330000 0.330000 0.330000
map_Kd bluewaterarena/Photo_Texture7_.jpg

newmtl Photo_Texture8_
Ka 0.000000 0.000000 0.000000
Kd 0.494118 0.494118 0.501961
Ks 0.330000 0.330000 0.330000
map_Kd bluewaterarena/Photo_Texture8_.jpg

newmtl Photo_Texture9_
Ka 0.000000 0.000000 0.000000
Kd 0.494118 0.494118 0.501961
Ks 0.330000 0.330000 0.330000
map_Kd bluewaterarena/Photo_Texture9_.jpg

newmtl Photo_Texture10_
Ka 0.000000 0.000000 0.000000
Kd 0.494118 0.494118 0.501961
Ks 0.330000 0.330000 0.330000
map_Kd bluewaterarena/Photo_Texture10_.jpg

newmtl Photo_Texture11_
Ka 0.000000 0.000000 0.000000
Kd 0.494118 0.494118 0.501961
Ks 0.330000 0.330000 0.330000
map_Kd bluewaterarena/Photo_Texture11_.jpg

newmtl Photo_Texture12_
Ka 0.000000 0.000000 0.000000
Kd 0.494118 0.494118 0.501961
Ks 0.330000 0.330000 0.330000
map_Kd bluewaterarena/Photo_Texture12_.jpg

newmtl Photo_Texture13_
Ka 0.000000 0.000000 0.000000
Kd 0.494118 0.494118 0.501961
Ks 0.330000 0.330000 0.330000
map_Kd bluewaterarena/Photo_Texture13_.jpg

newmtl Photo_Texture14_
Ka 0.000000 0.000000 0.000000
Kd 0.494118 0.494118 0.501961
Ks 0.330000 0.330000 0.330000
map_Kd bluewaterarena/Photo_Texture14_.jpg

newmtl Photo_Texture15_
Ka 0.000000 0.000000 0.000000
Kd 0.494118 0.494118 0.501961
Ks 0.330000 0.330000 0.330000
map_Kd bluewaterarena/Photo_Texture15_.jpg

newmtl Photo_Texture16_
Ka 0.000000 0.000000 0.000000
Kd 0.494118 0.494118 0.501961
Ks 0.330000 0.330000 0.330000
map_Kd bluewaterarena/Photo_Texture16_.jpg

newmtl Photo_Texture17_
Ka 0.000000 0.000000 0.000000
Kd 0.494118 0.494118 0.501961
Ks 0.330000 0.330000 0.330000
map_Kd bluewaterarena/Photo_Texture17_.jpg

newmtl Photo_Texture18_
Ka 0.000000 0.000000 0.000000
Kd 0.494118 0.494118 0.501961
Ks 0.330000 0.330000 0.330000
map_Kd bluewaterarena/Photo_Texture18_.jpg

newmtl Photo_Texture19_
Ka 0.000000 0.000000 0.000000
Kd 0.494118 0.494118 0.501961
Ks 0.330000 0.330000 0.330000
map_Kd bluewaterarena/Photo_Texture19_.jpg

newmtl Photo_Texture20_
Ka 0.000000 0.000000 0.000000
Kd 0.494118 0.494118 0.501961
Ks 0.330000 0.330000 0.330000
map_Kd bluewaterarena/Photo_Texture20_.jpg

newmtl Photo_Texture21_
Ka 0.000000 0.000000 0.000000
Kd 0.494118 0.494118 0.501961
Ks 0.330000 0.330000 0.330000
map_Kd bluewaterarena/Photo_Texture21_.jpg

newmtl Photo_Texture22_
Ka 0.000000 0.000000 0.000000
Kd 0.494118 0.494118 0.501961
Ks 0.330000 0.330000 0.330000
map_Kd bluewaterarena/Photo_Texture22_.jpg

newmtl Photo_Texture23_
Ka 0.000000 0.000000 0.000000
Kd 0.494118 0.494118 0.501961
Ks 0.330000 0.330000 0.330000
map_Kd bluewaterarena/Photo_Texture23_.jpg

newmtl Photo_Texture24_
Ka 0.000000 0.000000 0.000000
Kd 0.494118 0.494118 0.501961
Ks 0.330000 0.330000 0.330000
map_Kd bluewaterarena/Photo_Texture24_.jpg

newmtl Photo_Texture25_
Ka 0.000000 0.000000 0.000000
Kd 0.494118 0.494118 0.501961
Ks 0.330000 0.330000 0.330000
map_Kd bluewaterarena/Photo_Texture25_.jpg

newmtl Photo_Texture26_
Ka 0.000000 0.000000 0.000000
Kd 0.494118 0.494118 0.501961
Ks 0.330000 0.330000 0.330000
map_Kd bluewaterarena/Photo_Texture26_.jpg

newmtl Photo_Texture27_
Ka 0.000000 0.000000 0.000000
Kd 0.494118 0.494118 0.501961
Ks 0.330000 0.330000 0.330000
map_Kd bluewaterarena/Photo_Texture27_.jpg

newmtl Photo_Texture28_
Ka 0.000000 0.000000 0.000000
Kd 0.494118 0.494118 0.501961
Ks 0.330000 0.330000 0.330000
map_Kd bluewaterarena/Photo_Texture28_.jpg

newmtl Photo_Texture29_
Ka 0.000000 0.000000 0.000000
Kd 0.494118 0.494118 0.501961
Ks 0.330000 0.330000 0.330000
map_Kd bluewaterarena/Photo_Texture29_.jpg

newmtl Photo_Texture30_
Ka 0.000000 0.000000 0.000000
Kd 0.494118 0.494118 0.501961
Ks 0.330000 0.330000 0.330000
map_Kd bluewaterarena/Photo_Texture30_.jpg

newmtl Photo_Texture31_
Ka 0.000000 0.000000 0.000000
Kd 0.494118 0.494118 0.501961
Ks 0.330000 0.330000 0.330000
map_Kd bluewaterarena/Photo_Texture31_.jpg

newmtl Photo_Texture32_
Ka 0.000000 0.000000 0.000000
Kd 0.494118 0.494118 0.501961
Ks 0.330000 0.330000 0.330000
map_Kd bluewaterarena/Photo_Texture32_.jpg

newmtl Photo_Texture33_
Ka 0.000000 0.000000 0.000000
Kd 0.494118 0.494118 0.501961
Ks 0.330000 0.330000 0.330000
map_Kd bluewaterarena/Photo_Texture33_.jpg

newmtl Photo_Texture34_
Ka 0.000000 0.000000 0.000000
Kd 0.494118 0.494118 0.501961
Ks 0.330000 0.330000 0.330000
map_Kd bluewaterarena/Photo_Texture34_.jpg

newmtl Photo_Texture35_
Ka 0.000000 0.000000 0.000000
Kd 0.494118 0.494118 0.501961
Ks 0.330000 0.330000 0.330000
map_Kd bluewaterarena/Photo_Texture35_.jpg

newmtl Photo_Texture36_
Ka 0.000000 0.000000 0.000000
Kd 0.494118 0.494118 0.501961
Ks 0.330000 0.330000 0.330000
map_Kd bluewaterarena/Photo_Texture36_.jpg

newmtl Photo_Texture37_
Ka 0.000000 0.000000 0.000000
Kd 0.494118 0.494118 0.501961
Ks 0.330000 0.330000 0.330000
map_Kd bluewaterarena/Photo_Texture37_.jpg

newmtl Photo_Texture38_
Ka 0.000000 0.000000 0.000000
Kd 0.494118 0.494118 0.501961
Ks 0.330000 0.330000 0.330000
map_Kd bluewaterarena/Photo_Texture38_.jpg

newmtl Metal_Aluminum_Anodized
Ka 0.000000 0.000000 0.000000
Kd 0.533333 0.552941 0.576471
Ks 0.330000 0.330000 0.330000
map_Kd bluewaterarena/Metal_Aluminum_Anodized.jpg

newmtl _4
Ka 0.000000 0.000000 0.000000
Kd 0.972549 1.000000 1.000000
Ks 0.330000 0.330000 0.330000
d 0.520000
map_Kd bluewaterarena/_4.jpg

