#
## Alias OBJ Material File
# Exported from SketchUp, (c) 2000-2012 Trimble Navigation Limited

newmtl Google_Earth_Snapshot
Ka 0.000000 0.000000 0.000000
Kd 0.650980 0.592157 0.549020
Ks 0.330000 0.330000 0.330000
map_Kd vor_frelsers_kirke_esbjerg/Google_Earth_Snapshot.jpg

newmtl Photo_Texture45
Ka 0.000000 0.000000 0.000000
Kd 0.564706 0.545098 0.541176
Ks 0.330000 0.330000 0.330000
map_Kd vor_frelsers_kirke_esbjerg/Photo_Texture45.jpg

newmtl Photo_Texture44
Ka 0.000000 0.000000 0.000000
Kd 0.564706 0.545098 0.541176
Ks 0.330000 0.330000 0.330000
map_Kd vor_frelsers_kirke_esbjerg/Photo_Texture44.jpg

newmtl Photo_Texture43
Ka 0.000000 0.000000 0.000000
Kd 0.564706 0.545098 0.541176
Ks 0.330000 0.330000 0.330000
map_Kd vor_frelsers_kirke_esbjerg/Photo_Texture43.jpg

newmtl Photo_Texture42
Ka 0.000000 0.000000 0.000000
Kd 0.564706 0.545098 0.537255
Ks 0.330000 0.330000 0.330000
map_Kd vor_frelsers_kirke_esbjerg/Photo_Texture42.jpg

newmtl Photo_Texture38
Ka 0.000000 0.000000 0.000000
Kd 0.564706 0.545098 0.537255
Ks 0.330000 0.330000 0.330000
map_Kd vor_frelsers_kirke_esbjerg/Photo_Texture38.jpg

newmtl Photo_Texture39
Ka 0.000000 0.000000 0.000000
Kd 0.564706 0.545098 0.537255
Ks 0.330000 0.330000 0.330000
map_Kd vor_frelsers_kirke_esbjerg/Photo_Texture39.jpg

newmtl Photo_Texture40
Ka 0.000000 0.000000 0.000000
Kd 0.564706 0.545098 0.537255
Ks 0.330000 0.330000 0.330000
map_Kd vor_frelsers_kirke_esbjerg/Photo_Texture40.jpg

newmtl Photo_Texture41
Ka 0.000000 0.000000 0.000000
Kd 0.564706 0.545098 0.541176
Ks 0.330000 0.330000 0.330000
map_Kd vor_frelsers_kirke_esbjerg/Photo_Texture41.jpg

newmtl RedBrick1
Ka 0.000000 0.000000 0.000000
Kd 0.615686 0.360784 0.258824
Ks 0.330000 0.330000 0.330000

newmtl Photo_Texture20
Ka 0.000000 0.000000 0.000000
Kd 0.411765 0.384314 0.356863
Ks 0.330000 0.330000 0.330000
map_Kd vor_frelsers_kirke_esbjerg/Photo_Texture20.jpg

newmtl Photo_Texture25
Ka 0.000000 0.000000 0.000000
Kd 0.454902 0.403922 0.364706
Ks 0.330000 0.330000 0.330000
map_Kd vor_frelsers_kirke_esbjerg/Photo_Texture25.jpg

newmtl Photo_Texture26
Ka 0.000000 0.000000 0.000000
Kd 0.403922 0.380392 0.356863
Ks 0.330000 0.330000 0.330000
map_Kd vor_frelsers_kirke_esbjerg/Photo_Texture26.jpg

newmtl Photo_Texture27
Ka 0.000000 0.000000 0.000000
Kd 0.513725 0.513725 0.498039
Ks 0.330000 0.330000 0.330000
map_Kd vor_frelsers_kirke_esbjerg/Photo_Texture27.jpg

newmtl Photo_Texture28
Ka 0.000000 0.000000 0.000000
Kd 0.513725 0.513725 0.498039
Ks 0.330000 0.330000 0.330000
map_Kd vor_frelsers_kirke_esbjerg/Photo_Texture28.jpg

newmtl Photo_Texture32
Ka 0.000000 0.000000 0.000000
Kd 0.517647 0.509804 0.490196
Ks 0.330000 0.330000 0.330000
map_Kd vor_frelsers_kirke_esbjerg/Photo_Texture32.jpg

newmtl Photo_Texture22
Ka 0.000000 0.000000 0.000000
Kd 0.411765 0.384314 0.356863
Ks 0.330000 0.330000 0.330000
map_Kd vor_frelsers_kirke_esbjerg/Photo_Texture22.jpg

newmtl Photo_Texture35
Ka 0.000000 0.000000 0.000000
Kd 0.529412 0.525490 0.513725
Ks 0.330000 0.330000 0.330000
map_Kd vor_frelsers_kirke_esbjerg/Photo_Texture35.jpg

newmtl Photo_Texture19
Ka 0.000000 0.000000 0.000000
Kd 0.513725 0.525490 0.505882
Ks 0.330000 0.330000 0.330000
map_Kd vor_frelsers_kirke_esbjerg/Photo_Texture19.jpg

newmtl Photo_Texture19_1_
Ka 0.000000 0.000000 0.000000
Kd 0.513725 0.525490 0.505882
Ks 0.330000 0.330000 0.330000
map_Kd vor_frelsers_kirke_esbjerg/Photo_Texture19_1_.jpg

newmtl Photo_Texture19_2_
Ka 0.000000 0.000000 0.000000
Kd 0.513725 0.525490 0.505882
Ks 0.330000 0.330000 0.330000
map_Kd vor_frelsers_kirke_esbjerg/Photo_Texture19_2_.jpg

newmtl Photo_Texture19_3_
Ka 0.000000 0.000000 0.000000
Kd 0.513725 0.525490 0.505882
Ks 0.330000 0.330000 0.330000
map_Kd vor_frelsers_kirke_esbjerg/Photo_Texture19_3_.jpg

newmtl Photo_Texture11
Ka 0.000000 0.000000 0.000000
Kd 0.556863 0.525490 0.513725
Ks 0.330000 0.330000 0.330000
map_Kd vor_frelsers_kirke_esbjerg/Photo_Texture11.jpg

newmtl Photo_Texture13
Ka 0.000000 0.000000 0.000000
Kd 0.509804 0.505882 0.494118
Ks 0.330000 0.330000 0.330000
map_Kd vor_frelsers_kirke_esbjerg/Photo_Texture13.jpg

newmtl Photo_Texture33
Ka 0.000000 0.000000 0.000000
Kd 0.517647 0.474510 0.450980
Ks 0.330000 0.330000 0.330000
map_Kd vor_frelsers_kirke_esbjerg/Photo_Texture33.jpg

newmtl Photo_Texture5
Ka 0.000000 0.000000 0.000000
Kd 0.643137 0.631373 0.623529
Ks 0.330000 0.330000 0.330000
map_Kd vor_frelsers_kirke_esbjerg/Photo_Texture5.jpg

newmtl Photo_Texture76
Ka 0.000000 0.000000 0.000000
Kd 0.560784 0.556863 0.529412
Ks 0.330000 0.330000 0.330000
map_Kd vor_frelsers_kirke_esbjerg/Photo_Texture76.jpg

newmtl Photo_Texture18
Ka 0.000000 0.000000 0.000000
Kd 0.494118 0.486275 0.458824
Ks 0.330000 0.330000 0.330000
map_Kd vor_frelsers_kirke_esbjerg/Photo_Texture18.jpg

newmtl Photo_Texture75
Ka 0.000000 0.000000 0.000000
Kd 0.533333 0.525490 0.498039
Ks 0.330000 0.330000 0.330000
map_Kd vor_frelsers_kirke_esbjerg/Photo_Texture75.jpg

newmtl Photo_Texture66
Ka 0.000000 0.000000 0.000000
Kd 0.847059 0.878431 0.894118
Ks 0.330000 0.330000 0.330000
map_Kd vor_frelsers_kirke_esbjerg/Photo_Texture66.jpg

newmtl Photo_Texture73
Ka 0.000000 0.000000 0.000000
Kd 0.713725 0.729412 0.752941
Ks 0.330000 0.330000 0.330000
map_Kd vor_frelsers_kirke_esbjerg/Photo_Texture73.jpg

newmtl Photo_Texture61
Ka 0.000000 0.000000 0.000000
Kd 0.800000 0.792157 0.807843
Ks 0.330000 0.330000 0.330000
map_Kd vor_frelsers_kirke_esbjerg/Photo_Texture61.jpg

newmtl Photo_Texture53
Ka 0.000000 0.000000 0.000000
Kd 0.894118 0.890196 0.905882
Ks 0.330000 0.330000 0.330000
map_Kd vor_frelsers_kirke_esbjerg/Photo_Texture53.jpg

newmtl Photo_Texture62
Ka 0.000000 0.000000 0.000000
Kd 0.713725 0.709804 0.741176
Ks 0.330000 0.330000 0.330000
map_Kd vor_frelsers_kirke_esbjerg/Photo_Texture62.jpg

newmtl Photo_Texture63
Ka 0.000000 0.000000 0.000000
Kd 0.713725 0.709804 0.741176
Ks 0.330000 0.330000 0.330000
map_Kd vor_frelsers_kirke_esbjerg/Photo_Texture63.jpg

newmtl Photo_Texture65
Ka 0.000000 0.000000 0.000000
Kd 0.717647 0.709804 0.741176
Ks 0.330000 0.330000 0.330000
map_Kd vor_frelsers_kirke_esbjerg/Photo_Texture65.jpg

newmtl Photo_Texture64
Ka 0.000000 0.000000 0.000000
Kd 0.713725 0.709804 0.741176
Ks 0.330000 0.330000 0.330000
map_Kd vor_frelsers_kirke_esbjerg/Photo_Texture64.jpg

newmtl Asfalt1
Ka 0.000000 0.000000 0.000000
Kd 0.400000 0.454902 0.505882
Ks 0.330000 0.330000 0.330000

newmtl Photo_Texture50
Ka 0.000000 0.000000 0.000000
Kd 0.450980 0.392157 0.368627
Ks 0.330000 0.330000 0.330000
map_Kd vor_frelsers_kirke_esbjerg/Photo_Texture50.jpg

newmtl Photo_Texture51
Ka 0.000000 0.000000 0.000000
Kd 0.623529 0.592157 0.576471
Ks 0.330000 0.330000 0.330000
map_Kd vor_frelsers_kirke_esbjerg/Photo_Texture51.jpg

newmtl Photo_Texture48
Ka 0.000000 0.000000 0.000000
Kd 0.596078 0.572549 0.560784
Ks 0.330000 0.330000 0.330000
map_Kd vor_frelsers_kirke_esbjerg/Photo_Texture48.jpg

newmtl Photo_Texture47
Ka 0.000000 0.000000 0.000000
Kd 0.517647 0.501961 0.494118
Ks 0.330000 0.330000 0.330000
map_Kd vor_frelsers_kirke_esbjerg/Photo_Texture47.jpg

newmtl Photo_Texture49
Ka 0.000000 0.000000 0.000000
Kd 0.756863 0.737255 0.733333
Ks 0.330000 0.330000 0.330000
map_Kd vor_frelsers_kirke_esbjerg/Photo_Texture49.jpg

newmtl Photo_Texture49_1_
Ka 0.000000 0.000000 0.000000
Kd 0.756863 0.737255 0.733333
Ks 0.330000 0.330000 0.330000
map_Kd vor_frelsers_kirke_esbjerg/Photo_Texture49_1_.jpg

newmtl Photo_Texture15
Ka 0.000000 0.000000 0.000000
Kd 0.564706 0.572549 0.568627
Ks 0.330000 0.330000 0.330000
map_Kd vor_frelsers_kirke_esbjerg/Photo_Texture15.jpg

newmtl Photo_Texture17
Ka 0.000000 0.000000 0.000000
Kd 0.411765 0.403922 0.356863
Ks 0.330000 0.330000 0.330000
map_Kd vor_frelsers_kirke_esbjerg/Photo_Texture17.jpg

newmtl Photo_Texture16
Ka 0.000000 0.000000 0.000000
Kd 0.607843 0.596078 0.580392
Ks 0.330000 0.330000 0.330000
map_Kd vor_frelsers_kirke_esbjerg/Photo_Texture16.jpg

newmtl FrontColor
Ka 0.000000 0.000000 0.000000
Kd 1.000000 1.000000 1.000000
Ks 0.330000 0.330000 0.330000

newmtl Photo_Texture12
Ka 0.000000 0.000000 0.000000
Kd 0.509804 0.501961 0.482353
Ks 0.330000 0.330000 0.330000
map_Kd vor_frelsers_kirke_esbjerg/Photo_Texture12.jpg

newmtl Photo_Texture34
Ka 0.000000 0.000000 0.000000
Kd 0.623529 0.607843 0.596078
Ks 0.330000 0.330000 0.330000
map_Kd vor_frelsers_kirke_esbjerg/Photo_Texture34.jpg

